test_run_dir/UpTickerTest_20_should_pass/UpTicker.vcd
$date
2025-12-18T08:06+0000
$end
$version
0.2
$end
$comment

$end
$timescale 1ns  $end
$scope module UpTicker $end
 $var wire 8 ! cntReg $end
 $var wire 1 " reset $end
 $var wire 1 # clock $end
 $var wire 1 $ io_tick $end
$upscope $end
$enddefinitions $end
$dumpvars
0"
0#
0$
b00000000 !
$end
#0
1"
#1
1#
#6
0"
0#
#11
b00000001 !
1#
#16
0#
#21
b00000010 !
1#
#26
0#
#31
b00000011 !
1#
#36
0#
#41
b00000100 !
1#
#46
0#
#51
b00000101 !
1#
#56
0#
#61
b00000110 !
1#
#66
0#
#71
b00000111 !
1#
#76
0#
#81
b00001000 !
1#
#86
0#
#91
b00001001 !
1#
#96
0#
#101
b00001010 !
1#
#106
0#
#111
b00001011 !
1#
#116
0#
#121
b00001100 !
1#
#126
0#
#131
b00001101 !
1#
#136
0#
#141
b00001110 !
1#
#146
0#
#151
b00001111 !
1#
#156
0#
#161
b00010000 !
1#
#166
0#
#171
b00010001 !
1#
#176
0#
#181
b00010010 !
1#
#186
0#
#191
b00010011 !
1#
1$
