test_run_dir/factoringFSMTest_should_pass/factoringFSM.vcd
$date
2025-12-17T11:52+0000
$end
$version
0.2
$end
$comment

$end
$timescale 1ns  $end
$scope module factoringFSM $end
 $var wire 1 " myMasterFSM $end
 $var wire 1 ' clock $end
 $var wire 1 ) myTimerFSM $end
 $var wire 1 + reset $end
 $var wire 1 / io_light $end
 $var wire 1 1 io_start $end
  $scope module myMasterFSM $end
   $var wire 1 # io_timerSelect $end
   $var wire 1 $ reset $end
   $var wire 1 & io_start $end
   $var wire 1 * io_timerLoad $end
   $var wire 3 . state $end
   $var wire 1 0 io_timerDone $end
   $var wire 1 3 clock $end
   $var wire 1 5 io_light $end
  $upscope $end
  $scope module myTimerFSM $end
   $var wire 2 ! state $end
   $var wire 1 % io_timerLoad $end
   $var wire 1 ( io_timerSelect $end
   $var wire 4 , timerReg $end
   $var wire 1 - io_timerDone $end
   $var wire 1 2 clock $end
   $var wire 1 4 reset $end
  $upscope $end
$upscope $end
$enddefinitions $end
$dumpvars
00
01
02
03
04
05
b0000 ,
b000 .
0"
0#
0$
0%
0&
0'
0(
b00 !
0)
0*
0+
0-
0/
$end
#0
1$
14
1+
#1
12
13
1'
#6
02
03
0$
04
0'
0+
#11
12
13
1'
#16
02
03
0'
#21
12
13
1'
#26
02
03
0'
#31
12
13
1'
#36
02
03
0'
#41
12
13
1'
#46
02
03
0'
#51
12
13
1'
#56
02
03
0'
#61
12
13
1'
#66
02
03
0'
#71
12
13
1'
#76
02
03
0'
#81
12
13
1'
#86
02
03
0'
#91
12
13
1'
#96
02
03
0'
#101
12
13
1'
#106
02
03
0'
#111
12
13
1'
#116
02
03
0'
#121
12
13
1'
#126
02
03
0'
#131
12
13
1'
#136
02
03
0'
#141
12
13
1'
#146
02
03
0'
#151
12
13
1'
#156
11
02
03
1&
0'
#161
12
1#
13
1%
15
1'
1(
1*
b001 .
1/
#166
01
02
03
0&
0'
#171
b01 !
12
13
1'
b0010 ,
#176
02
03
0'
#181
12
13
1'
b0001 ,
#186
02
03
0'
#191
10
12
13
1'
b0000 ,
1-
#196
02
03
0'
#201
00
b00 !
12
0#
13
05
1'
0(
0-
b010 .
0/
#206
02
03
0'
#211
10
b01 !
12
13
1'
1-
#216
02
03
0'
#221
00
b00 !
12
1#
13
15
1'
1(
0-
b011 .
1/
#226
02
03
0'
#231
b01 !
12
13
1'
b0010 ,
#236
02
03
0'
#241
12
13
1'
b0001 ,
#246
02
03
0'
#251
10
12
13
1'
b0000 ,
1-
#256
02
03
0'
#261
00
b00 !
12
0#
13
05
1'
0(
0-
b100 .
0/
#266
02
03
0'
#271
10
b01 !
12
13
1'
1-
#276
02
03
0'
#281
00
b00 !
12
1#
13
15
1'
1(
0-
b101 .
1/
#286
02
03
0'
#291
b01 !
12
13
1'
b0010 ,
#296
02
03
0'
#301
12
13
1'
b0001 ,
#306
02
03
0'
#311
10
12
13
1'
b0000 ,
1-
#316
02
03
0'
#321
b00 !
0#
0%
1'
0(
0*
0-
b000 .
0/
00
12
13
05
