test_run_dir/regsTest_should_pass/regs.vcd
$date
2025-12-18T09:52+0000
$end
$version
0.2
$end
$comment

$end
$timescale 1ns  $end
$scope module regs $end
 $var wire 8 ! io_out $end
 $var wire 2 " io_out_hi_lo $end
 $var wire 2 # io_out_lo_hi $end
 $var wire 3 $ io_out_hi_hi $end
 $var wire 1 % risingEdge_REG $end
 $var wire 1 & reg4 $end
 $var wire 1 ' io_en $end
 $var wire 8 ( io_in $end
 $var wire 1 ) reg1 $end
 $var wire 1 * reg0 $end
 $var wire 1 + reg3 $end
 $var wire 1 , reg2 $end
 $var wire 1 - clock $end
 $var wire 1 . reset $end
 $var wire 3 / io_out_lo $end
 $var wire 1 0 risingEdge $end
 $var wire 5 1 io_out_hi $end
$upscope $end
$enddefinitions $end
$dumpvars
00
b000 $
b00000000 (
b000 /
b00000000 !
0%
0&
0'
0)
0*
0+
0,
0-
0.
b00000 1
b00 #
b00 "
$end
#0
1.
#1
b00000100 !
b10 #
1,
1-
b100 /
#6
10
b00100100 !
b00100 1
b001 $
b10101010 (
0-
0.
#11
00
b00000010 !
b00000 1
b01 #
b000 $
1%
1)
0,
1-
b010 /
#16
b01010101 (
0-
#21
b00000101 !
b10 #
0%
0)
1*
1,
1-
b101 /
#26
b11011011 (
0-
#31
b00000011 !
b01 #
1)
0,
1-
b011 /
#36
10
b00100011 !
b00100 1
b001 $
1'
b01101101 (
0-
#41
b00001101 !
b01 "
b10 #
b000 $
1%
0)
1+
1,
1-
b101 /
00
b00001 1
#46
b00111100 (
0-
#51
b00011100 !
b00011 1
b11 "
1&
0*
1-
b100 /
#56
0'
b00000000 (
0-
