test_run_dir/memTest_should_pass/forwardingMem2.vcd
$date
2025-12-15T10:27+0000
$end
$version
0.2
$end
$comment

$end
$timescale 1ns  $end
$scope module forwardingMem2 $end
 $var wire 8 ! wdataReg $end
 $var wire 10 " fdmem_rdata_addr_pipe_0 $end
 $var wire 8 # io_rdata $end
 $var wire 1 $ fdmem_rdata_en_pipe_0 $end
 $var wire 10 % io_waddr $end
 $var wire 8 ) fdmem $end
 $var wire 1 , clock $end
 $var wire 1 - io_wen $end
 $var wire 10 1 io_raddr $end
 $var wire 1 2 reset $end
 $var wire 8 5 io_wdata $end
 $var wire 1 6 doForwardReg $end
  $scope module fdmem $end
   $var wire 8 4 MPORT $end
    $scope module MPORT $end
     $var wire 1 & clk $end
     $var wire 10 ' pipeline_addr_0 $end
     $var wire 8 ( pipeline_data_0 $end
     $var wire 1 * pipeline_valid_0 $end
     $var wire 1 + en $end
     $var wire 8 . data $end
     $var wire 1 3 valid $end
     $var wire 1 7 mask $end
     $var wire 10 9 addr $end
    $upscope $end
    $scope module rdata $end
     $var wire 8 / data $end
     $var wire 1 0 en $end
     $var wire 1 8 clk $end
     $var wire 10 : addr $end
    $upscope $end
  $upscope $end
$upscope $end
$enddefinitions $end
$dumpvars
00
b0000000000 9
02
03
b0000000000 :
06
b00000000 )
b00000000 (
08
b00000000 #
b0000000000 1
b00000000 !
b0000000000 '
b00000000 5
b00000000 4
b00000000 /
b0000000000 %
b00000000 .
b0000000000 "
17
0$
0&
0*
0+
0,
0-
$end
#0
12
#1
10
1$
1&
18
1,
#6
02
13
b0000010000 %
b10101011 5
0&
08
b0000010000 9
1+
0,
1-
b10101011 .
#11
b10101011 !
1&
b0000010000 '
b10101011 (
18
1*
1,
#16
b0000100000 %
b11001101 5
0&
08
b0000100000 9
0,
b11001101 .
#21
b11001101 !
1&
b0000100000 '
b11001101 (
18
1,
#26
b0000110000 %
b11101111 5
0&
08
b0000110000 9
0,
b11101111 .
#31
b11101111 !
1&
b0000110000 '
b11101111 (
18
1,
#36
b0000010000 1
03
0&
08
0+
0,
0-
#41
b0000010000 "
b10101011 #
1&
18
0*
b0000010000 :
1,
b10101011 /
#46
b0000100000 1
0&
08
0,
#51
b0000100000 "
b11001101 #
1&
18
b0000100000 :
1,
b11001101 /
#56
b0000110000 1
0&
08
0,
#61
b0000110000 "
b11101111 #
1&
18
b0000110000 :
1,
b11101111 /
#66
0&
08
0,
#71
1&
18
1,
#76
0&
08
0,
#81
1&
18
1,
#86
0&
08
0,
#91
1&
18
1,
#96
b0001000000 1
13
b0001000000 %
b10001001 5
0&
08
b0001000000 9
1+
0,
1-
b10001001 .
#101
b10001001 !
b0001000000 "
b10001001 #
1&
b0001000000 '
b10001001 (
1*
1,
b10001001 /
16
18
b0001000000 :
#106
0&
08
0,
#111
1&
18
1,
#116
0&
08
0,
#121
1&
18
1,
#126
0&
08
0,
#131
1&
18
1,
#136
0&
08
0,
#141
1&
18
1,
#146
b0000000000 1
b0000000000 %
b00000000 5
0,
0-
