test_run_dir/memTest_should_pass/mem.vcd
$date
2025-12-15T10:03+0000
$end
$version
0.2
$end
$comment

$end
$timescale 1ns  $end
$scope module mem $end
 $var wire 8 ! io_rdata $end
 $var wire 10 " io_waddr $end
 $var wire 8 $ io_wdata $end
 $var wire 8 & mem $end
 $var wire 1 + mem_io_rdata_MPORT_en_pipe_0 $end
 $var wire 1 / clock $end
 $var wire 1 2 io_wen $end
 $var wire 10 4 io_raddr $end
 $var wire 10 5 mem_io_rdata_MPORT_addr_pipe_0 $end
 $var wire 1 6 reset $end
  $scope module mem $end
   $var wire 8 ' MPORT $end
    $scope module io_rdata_MPORT $end
     $var wire 1 # clk $end
     $var wire 8 . data $end
     $var wire 10 3 addr $end
     $var wire 1 7 en $end
    $upscope $end
    $scope module MPORT $end
     $var wire 10 % addr $end
     $var wire 1 ( en $end
     $var wire 1 ) valid $end
     $var wire 8 * pipeline_data_0 $end
     $var wire 8 , data $end
     $var wire 1 - mask $end
     $var wire 1 0 pipeline_valid_0 $end
     $var wire 10 1 pipeline_addr_0 $end
     $var wire 1 8 clk $end
    $upscope $end
  $upscope $end
$upscope $end
$enddefinitions $end
$dumpvars
00
b00000000 *
02
b00000000 ,
b00000000 '
b00000000 &
06
07
08
b0000000000 1
b00000000 $
b0000000000 4
b0000000000 5
b00000000 !
b0000000000 3
1-
b0000000000 %
b00000000 .
b0000000000 "
0#
0(
0)
0+
0/
$end
#0
16
#1
1#
17
18
1+
1/
#6
b0000010000 "
12
0#
b10101011 $
b0000010000 %
06
1(
08
1)
b10101011 ,
0/
#11
10
b0000010000 1
1#
18
b10101011 *
1/
#16
b0000100000 "
0#
b11001101 $
b0000100000 %
08
b11001101 ,
0/
#21
b0000100000 1
1#
18
b11001101 *
1/
#26
b0000110000 "
0#
b11101111 $
b0000110000 %
08
b11101111 ,
0/
#31
b0000110000 1
1#
18
b11101111 *
1/
#36
02
0#
b0000010000 4
0(
08
0)
0/
#41
00
b10101011 !
1#
b0000010000 3
b0000010000 5
18
b10101011 .
1/
#46
0#
b0000100000 4
08
0/
#51
b11001101 !
1#
b0000100000 3
b0000100000 5
18
b11001101 .
1/
#56
0#
b0000110000 4
08
0/
#61
b11101111 !
1#
b0000110000 3
b0000110000 5
18
b11101111 .
1/
