test_run_dir/lutTest_should_pass/lut.vcd
$date
2025-12-18T07:27+0000
$end
$version
0.2
$end
$comment

$end
$timescale 1ns  $end
$scope module lut $end
 $var wire 8 ! table_220 $end
 $var wire 8 " table_0 $end
 $var wire 8 # table_219 $end
 $var wire 8 $ table_218 $end
 $var wire 8 % table_215 $end
 $var wire 8 & table_214 $end
 $var wire 8 ' table_217 $end
 $var wire 8 ( table_216 $end
 $var wire 8 ) table_211 $end
 $var wire 8 * table_210 $end
 $var wire 8 + table_213 $end
 $var wire 8 , table_212 $end
 $var wire 8 - table_208 $end
 $var wire 8 . table_207 $end
 $var wire 8 / table_209 $end
 $var wire 8 0 table_204 $end
 $var wire 8 1 table_203 $end
 $var wire 8 2 table_206 $end
 $var wire 8 3 table_205 $end
 $var wire 8 4 table_200 $end
 $var wire 8 5 table_202 $end
 $var wire 8 6 table_201 $end
 $var wire 1 7 clock $end
 $var wire 8 8 table_50 $end
 $var wire 8 9 table_51 $end
 $var wire 8 : table_52 $end
 $var wire 8 ; table_53 $end
 $var wire 8 < table_54 $end
 $var wire 8 = table_55 $end
 $var wire 8 > table_56 $end
 $var wire 8 ? table_57 $end
 $var wire 8 @ table_58 $end
 $var wire 8 A table_59 $end
 $var wire 8 B io_address $end
 $var wire 8 C table_40 $end
 $var wire 8 D table_41 $end
 $var wire 8 E table_42 $end
 $var wire 8 F table_43 $end
 $var wire 8 G table_44 $end
 $var wire 8 H table_45 $end
 $var wire 8 I table_46 $end
 $var wire 8 J table_47 $end
 $var wire 8 K table_48 $end
 $var wire 8 L table_49 $end
 $var wire 8 M table_70 $end
 $var wire 8 N table_71 $end
 $var wire 8 O table_72 $end
 $var wire 8 P table_73 $end
 $var wire 8 Q table_74 $end
 $var wire 8 R table_75 $end
 $var wire 8 S table_76 $end
 $var wire 8 T table_77 $end
 $var wire 8 U table_78 $end
 $var wire 8 V table_79 $end
 $var wire 8 W table_199 $end
 $var wire 8 X table_196 $end
 $var wire 8 Y table_195 $end
 $var wire 8 Z table_198 $end
 $var wire 8 [ io_data $end
 $var wire 8 \ table_197 $end
 $var wire 8 ] table_192 $end
 $var wire 8 ^ table_191 $end
 $var wire 8 _ table_194 $end
 $var wire 8 ` table_193 $end
 $var wire 8 a table_190 $end
 $var wire 8 b table_60 $end
 $var wire 8 c table_61 $end
 $var wire 8 d table_62 $end
 $var wire 8 e table_63 $end
 $var wire 8 f table_64 $end
 $var wire 8 g table_65 $end
 $var wire 8 h table_66 $end
 $var wire 8 i table_67 $end
 $var wire 8 j table_68 $end
 $var wire 8 k table_69 $end
 $var wire 8 l table_189 $end
 $var wire 8 m table_188 $end
 $var wire 8 n table_10 $end
 $var wire 8 o table_11 $end
 $var wire 8 p table_12 $end
 $var wire 8 q table_13 $end
 $var wire 8 r table_14 $end
 $var wire 8 s table_15 $end
 $var wire 8 t table_16 $end
 $var wire 8 u table_17 $end
 $var wire 8 v table_18 $end
 $var wire 8 w table_19 $end
 $var wire 8 x table_30 $end
 $var wire 8 y table_31 $end
 $var wire 8 z table_32 $end
 $var wire 8 { table_33 $end
 $var wire 8 | table_34 $end
 $var wire 8 } table_35 $end
 $var wire 8 ~ table_36 $end
 $var wire 8 "! table_37 $end
 $var wire 8 "" table_38 $end
 $var wire 8 "# table_39 $end
 $var wire 8 "$ table_20 $end
 $var wire 8 "% table_21 $end
 $var wire 8 "& table_22 $end
 $var wire 8 "' table_23 $end
 $var wire 8 "( table_24 $end
 $var wire 8 ") table_25 $end
 $var wire 8 "* table_26 $end
 $var wire 8 "+ table_27 $end
 $var wire 8 ", table_28 $end
 $var wire 8 "- table_29 $end
 $var wire 8 ". table_141 $end
 $var wire 8 "/ table_140 $end
 $var wire 8 "0 table_143 $end
 $var wire 8 "1 table_142 $end
 $var wire 8 "2 table_138 $end
 $var wire 8 "3 table_137 $end
 $var wire 8 "4 table_139 $end
 $var wire 8 "5 table_134 $end
 $var wire 8 "6 table_255 $end
 $var wire 8 "7 table_133 $end
 $var wire 8 "8 table_254 $end
 $var wire 8 "9 table_136 $end
 $var wire 8 ": table_135 $end
 $var wire 8 "; table_130 $end
 $var wire 8 "< table_251 $end
 $var wire 8 "= table_250 $end
 $var wire 8 "> table_132 $end
 $var wire 8 "? table_253 $end
 $var wire 8 "@ table_131 $end
 $var wire 8 "A table_252 $end
 $var wire 8 "B table_127 $end
 $var wire 8 "C table_248 $end
 $var wire 8 "D table_126 $end
 $var wire 8 "E table_247 $end
 $var wire 1 "F reset $end
 $var wire 8 "G table_129 $end
 $var wire 8 "H table_128 $end
 $var wire 8 "I table_249 $end
 $var wire 8 "J table_123 $end
 $var wire 8 "K table_244 $end
 $var wire 8 "L table_122 $end
 $var wire 8 "M table_243 $end
 $var wire 8 "N table_125 $end
 $var wire 8 "O table_246 $end
 $var wire 8 "P table_124 $end
 $var wire 8 "Q table_245 $end
 $var wire 8 "R table_240 $end
 $var wire 8 "S table_121 $end
 $var wire 8 "T table_242 $end
 $var wire 8 "U table_120 $end
 $var wire 8 "V table_241 $end
 $var wire 8 "W table_119 $end
 $var wire 8 "X table_116 $end
 $var wire 8 "Y table_237 $end
 $var wire 8 "Z table_115 $end
 $var wire 8 "[ table_236 $end
 $var wire 8 "\ table_118 $end
 $var wire 8 "] table_239 $end
 $var wire 8 "^ table_117 $end
 $var wire 8 "_ table_238 $end
 $var wire 8 "` table_112 $end
 $var wire 8 "a table_233 $end
 $var wire 8 "b table_111 $end
 $var wire 8 "c table_232 $end
 $var wire 8 "d table_114 $end
 $var wire 8 "e table_235 $end
 $var wire 8 "f table_113 $end
 $var wire 8 "g table_234 $end
 $var wire 8 "h table_110 $end
 $var wire 8 "i table_231 $end
 $var wire 8 "j table_230 $end
 $var wire 8 "k table_1 $end
 $var wire 8 "l table_2 $end
 $var wire 8 "m table_3 $end
 $var wire 8 "n table_4 $end
 $var wire 8 "o table_109 $end
 $var wire 8 "p table_5 $end
 $var wire 8 "q table_108 $end
 $var wire 8 "r table_229 $end
 $var wire 8 "s table_6 $end
 $var wire 8 "t table_7 $end
 $var wire 8 "u table_8 $end
 $var wire 8 "v table_105 $end
 $var wire 8 "w table_226 $end
 $var wire 8 "x table_9 $end
 $var wire 8 "y table_104 $end
 $var wire 8 "z table_225 $end
 $var wire 8 "{ table_107 $end
 $var wire 8 "| table_228 $end
 $var wire 8 "} table_106 $end
 $var wire 8 "~ table_227 $end
 $var wire 8 #! table_101 $end
 $var wire 8 #" table_222 $end
 $var wire 8 ## table_100 $end
 $var wire 8 #$ table_221 $end
 $var wire 8 #% table_103 $end
 $var wire 8 #& table_224 $end
 $var wire 8 #' table_102 $end
 $var wire 8 #( table_223 $end
 $var wire 8 #) table_185 $end
 $var wire 8 #* table_184 $end
 $var wire 8 #+ table_187 $end
 $var wire 8 #, table_186 $end
 $var wire 8 #- table_181 $end
 $var wire 8 #. table_180 $end
 $var wire 8 #/ table_183 $end
 $var wire 8 #0 table_182 $end
 $var wire 8 #1 table_90 $end
 $var wire 8 #2 table_91 $end
 $var wire 8 #3 table_92 $end
 $var wire 8 #4 table_93 $end
 $var wire 8 #5 table_94 $end
 $var wire 8 #6 table_95 $end
 $var wire 8 #7 table_96 $end
 $var wire 8 #8 table_97 $end
 $var wire 8 #9 table_98 $end
 $var wire 8 #: table_99 $end
 $var wire 8 #; table_178 $end
 $var wire 8 #< table_177 $end
 $var wire 8 #= table_179 $end
 $var wire 8 #> table_174 $end
 $var wire 8 #? table_173 $end
 $var wire 8 #@ table_176 $end
 $var wire 8 #A table_175 $end
 $var wire 8 #B table_170 $end
 $var wire 8 #C table_172 $end
 $var wire 8 #D table_171 $end
 $var wire 8 #E table_80 $end
 $var wire 8 #F table_81 $end
 $var wire 8 #G table_82 $end
 $var wire 8 #H table_83 $end
 $var wire 8 #I table_84 $end
 $var wire 8 #J table_85 $end
 $var wire 8 #K table_86 $end
 $var wire 8 #L table_87 $end
 $var wire 8 #M table_88 $end
 $var wire 8 #N table_89 $end
 $var wire 8 #O table_167 $end
 $var wire 8 #P table_166 $end
 $var wire 8 #Q table_169 $end
 $var wire 8 #R table_168 $end
 $var wire 8 #S table_163 $end
 $var wire 8 #T table_162 $end
 $var wire 8 #U table_165 $end
 $var wire 8 #V table_164 $end
 $var wire 8 #W table_161 $end
 $var wire 8 #X table_160 $end
 $var wire 8 #Y table_159 $end
 $var wire 8 #Z table_156 $end
 $var wire 8 #[ table_155 $end
 $var wire 8 #\ table_158 $end
 $var wire 8 #] table_157 $end
 $var wire 8 #^ table_152 $end
 $var wire 8 #_ table_151 $end
 $var wire 8 #` table_154 $end
 $var wire 8 #a table_153 $end
 $var wire 8 #b table_150 $end
 $var wire 8 #c table_149 $end
 $var wire 8 #d table_148 $end
 $var wire 8 #e table_145 $end
 $var wire 8 #f table_144 $end
 $var wire 8 #g table_147 $end
 $var wire 8 #h table_146 $end
$upscope $end
$enddefinitions $end
$dumpvars
b00000000 k
b00000000 j
b00000000 m
b00000000 l
b00000000 g
b00000000 f
b00000000 i
07
b00000000 h
b00000000 c
b00000000 b
b00000000 e
b00000000 d
b00000000 _
b00000000 ^
b00000000 a
b00000000 `
b00000000 {
b00000000 z
b00000000 }
b00000000 |
b00000000 w
b00000000 v
b00000000 y
b00000000 x
b00000000 s
b00000000 r
b00000000 u
b00000000 t
b00000000 o
b00000000 n
b00000000 q
b00000000 p
b00000000 K
b00000000 J
b00000000 M
b00000000 L
b00000000 G
b00000000 F
b00000000 I
b00000000 H
b00000000 C
b00000000 B
b00000000 E
b00000000 D
b00000000 ?
b00000000 >
b00000000 A
b00000000 @
b00000000 [
b00000000 Z
b00000000 ]
b00000000 \
b00000000 W
b00000000 V
b00000000 Y
b00000000 X
b00000000 S
b00000000 R
b00000000 U
b00000000 T
b00000000 O
b00000000 N
b00000000 Q
b00000000 P
b00000000 ~
b00000000 "g
b00000000 #H
b00000000 "f
b00000000 #G
b00000000 "e
b00000000 #F
b00000000 "d
b00000000 #E
b00000000 "k
b00000000 #L
b00000000 "j
b00000000 #K
b00000000 "i
b00000000 #J
b00000000 "h
b00000000 #I
b00000000 "o
b00000000 #P
b00000000 "n
b00000000 #O
b00000000 "m
b00000000 #N
b00000000 "l
b00000000 #M
b00000000 "s
b00000000 #T
b00000000 "r
b00000000 #S
b00000000 "q
b00000000 #R
b00000000 "p
b00000000 #Q
b00000000 "w
b00000000 #X
b00000000 "v
b00000000 #W
b00000000 "u
b00000000 #V
b00000000 "t
b00000000 #U
0"F
b00000000 "{
b00000000 #\
b00000000 "z
b00000000 #[
b00000000 "y
b00000000 #Z
b00000000 "x
b00000000 #Y
b00000000 #`
b00000000 "~
b00000000 #_
b00000000 "}
b00000000 #^
b00000000 "|
b00000000 #]
b00000000 #d
b00000000 #c
b00000000 #b
b00000000 #a
b00000000 #h
b00000000 #g
b00000000 #f
b00000000 #e
b00000000 "#
b00000000 ""
b00000000 "!
b00000000 "'
b00000000 "&
b00000000 "%
b00000000 "$
b00000000 "+
b00000000 "*
b00000000 ")
b00000000 "(
b00000000 "/
b00000000 ".
b00000000 "-
b00000000 ",
b00000000 "3
b00000000 "2
b00000000 "1
b00000000 "0
b00000000 "7
b00000000 "6
b00000000 "5
b00000000 "4
b00000000 ";
b00000000 ":
b00000000 "9
b00000000 "8
b00000000 "?
b00000000 ">
b00000000 "=
b00000000 "<
b00000000 "C
b00000000 #$
b00000000 "B
b00000000 ##
b00000000 "A
b00000000 #"
b00000000 "@
b00000000 #!
b00000000 "G
b00000000 #(
b00000000 #'
b00000000 "E
b00000000 #&
b00000000 "D
b00000000 #%
b00000000 "K
b00000000 #,
b00000000 "J
b00000000 #+
b00000000 "I
b00000000 #*
b00000000 "H
b00000000 #)
b00000000 "O
b00000000 #0
b00000000 "N
b00000000 #/
b00000000 "M
b00000000 #.
b00000000 "L
b00000000 #-
b00000000 "S
b00000000 #4
b00000000 "R
b00000000 #3
b00000000 "Q
b00000000 #2
b00000000 "P
b00000000 #1
b00000000 "W
b00000000 #8
b00000000 "V
b00000000 #7
b00000000 "U
b00000000 #6
b00000000 "T
b00000000 #5
b00000000 "[
b00000000 #<
b00000000 "Z
b00000000 #;
b00000000 "Y
b00000000 #:
b00000000 "X
b00000000 #9
b00000000 "_
b00000000 #@
b00000000 "^
b00000000 #?
b00000000 "]
b00000000 #>
b00000000 "\
b00000000 #=
b00000000 "c
b00000000 #D
b00000000 "b
b00000000 #C
b00000000 "a
b00000000 #B
b00000000 "`
b00000000 #A
b00000000 +
b00000000 *
b00000000 -
b00000000 ,
b00000000 '
b00000000 &
b00000000 )
b00000000 (
b00000000 #
b00000000 "
b00000000 %
b00000000 $
b00000000 !
b00000000 ;
b00000000 :
b00000000 =
b00000000 <
b00000000 6
b00000000 9
b00000000 8
b00000000 3
b00000000 2
b00000000 5
b00000000 4
b00000000 /
b00000000 .
b00000000 1
b00000000 0
$end
#0
b00000010 ""
b00000101 "$
b01001011 "%
b00000111 "&
b00000001 "'
b00000011 "(
b00100100 ")
b00100000 "*
b01000001 "+
b00001001 "k
b00111010 ",
b00001000 "l
b00011001 "-
b00000111 "m
b00000110 "n
b00000110 "p
b00000101 "s
b00000100 "t
b00001101 "u
b00010111 "x
b00001010 [
b00001010 "
1"F
b00000110 n
b00000011 o
b00101011 p
b00000100 q
b01011100 r
b00101101 s
b00011001 t
b00101100 u
b00100011 v
b00000110 w
b00000011 x
b00100000 y
b00101101 z
b00000010 {
b00011000 |
b00000100 }
b00100000 ~
b00111110 "!
#1
17
#6
0"F
07
#11
17
#16
07
#21
17
#26
07
#31
17
#36
07
#41
17
#46
07
#51
17
#56
07
#61
17
#66
07
#71
17
#76
07
#81
17
#86
07
#91
17
#96
07
#101
17
#106
b00000110 B
07
b00000101 [
#111
17
#116
07
#121
17
#126
07
#131
17
#136
07
#141
17
#146
07
#151
17
#156
07
#161
17
#166
07
#171
17
#176
07
#181
17
#186
07
#191
17
#196
07
#201
17
#206
b00001010 B
07
b00000110 [
#211
17
#216
07
#221
17
#226
07
#231
17
#236
07
#241
17
#246
07
#251
17
#256
07
#261
17
#266
07
#271
17
#276
07
#281
17
#286
07
#291
17
#296
07
#301
17
#306
b00000011 B
07
b00000111 [
#311
17
#316
07
#321
17
#326
07
#331
17
#336
07
#341
17
#346
07
#351
17
#356
07
#361
17
#366
07
#371
17
#376
07
#381
17
#386
07
#391
17
#396
07
#401
17
#406
b00010111 B
07
b00000001 [
#411
17
#416
07
#421
17
#426
07
#431
17
#436
07
#441
17
#446
07
#451
17
#456
07
#461
17
#466
07
#471
17
#476
07
#481
17
#486
07
#491
17
#496
07
#501
17
#506
b00000010 B
07
b00001000 [
#511
17
#516
07
#521
17
#526
07
#531
17
#536
07
#541
17
#546
07
#551
17
#556
07
#561
17
#566
07
#571
17
#576
07
#581
17
#586
07
#591
17
#596
07
#601
17
#606
b00011100 B
07
b00111010 [
#611
17
#616
07
#621
17
#626
07
#631
17
#636
07
#641
17
#646
07
#651
17
#656
07
#661
17
#666
07
#671
17
#676
07
#681
17
#686
07
#691
17
#696
07
#701
17
#706
b00000011 B
07
b00000111 [
#711
17
#716
07
#721
17
#726
07
#731
17
#736
07
#741
17
#746
07
#751
17
#756
07
#761
17
#766
07
#771
17
#776
07
#781
17
#786
07
#791
17
#796
07
#801
17
#806
b00000001 B
07
b00001001 [
#811
17
#816
07
#821
17
#826
07
#831
17
#836
07
#841
17
#846
07
#851
17
#856
07
#861
17
#866
07
#871
17
#876
07
#881
17
#886
07
#891
17
#896
07
#901
17
#906
b00010111 B
07
b00000001 [
#911
17
#916
07
#921
17
#926
07
#931
17
#936
07
#941
17
#946
07
#951
17
#956
07
#961
17
#966
07
#971
17
#976
07
#981
17
#986
07
#991
17
#996
07
#1001
17
#1006
b00000011 B
07
b00000111 [
#1011
17
#1016
07
#1021
17
#1026
07
#1031
17
#1036
07
#1041
17
#1046
07
#1051
17
#1056
07
#1061
17
#1066
07
#1071
17
#1076
07
#1081
17
#1086
07
#1091
17
#1096
07
#1101
17
#1106
07
#1111
17
#1116
07
#1121
17
#1126
07
#1131
17
#1136
07
#1141
17
#1146
07
#1151
17
#1156
07
#1161
17
#1166
07
#1171
17
#1176
07
#1181
17
#1186
07
#1191
17
#1196
07
#1201
17
#1206
b00000000 B
07
b00001010 [
#1211
17
#1216
07
#1221
17
#1226
07
#1231
17
#1236
07
#1241
17
#1246
07
#1251
17
#1256
07
#1261
17
#1266
07
#1271
17
#1276
07
#1281
17
#1286
07
#1291
17
#1296
07
#1301
17
#1306
b00001100 B
07
b00101011 [
#1311
17
#1316
07
#1321
17
#1326
07
#1331
17
#1336
07
#1341
17
#1346
07
#1351
17
#1356
07
#1361
17
#1366
07
#1371
17
#1376
07
#1381
17
#1386
07
#1391
17
#1396
07
#1401
17
#1406
b00011011 B
07
b01000001 [
#1411
17
#1416
07
#1421
17
#1426
07
#1431
17
#1436
07
#1441
17
#1446
07
#1451
17
#1456
07
#1461
17
#1466
07
#1471
17
#1476
07
#1481
17
#1486
07
#1491
17
#1496
07
#1501
17
#1506
07
#1511
17
#1516
07
#1521
17
#1526
07
#1531
17
#1536
07
#1541
17
#1546
07
#1551
17
#1556
07
#1561
17
#1566
07
#1571
17
#1576
07
#1581
17
#1586
07
#1591
17
#1596
07
#1601
17
#1606
b00010011 B
07
b00000110 [
#1611
17
#1616
07
#1621
17
#1626
07
#1631
17
#1636
07
#1641
17
#1646
07
#1651
17
#1656
07
#1661
17
#1666
07
#1671
17
#1676
07
#1681
17
#1686
07
#1691
17
#1696
07
#1701
17
#1706
b00001110 B
07
b01011100 [
#1711
17
#1716
07
#1721
17
#1726
07
#1731
17
#1736
07
#1741
17
#1746
07
#1751
17
#1756
07
#1761
17
#1766
07
#1771
17
#1776
07
#1781
17
#1786
07
#1791
17
#1796
07
#1801
17
#1806
b00010101 B
07
b01001011 [
#1811
17
#1816
07
#1821
17
#1826
07
#1831
17
#1836
07
#1841
17
#1846
07
#1851
17
#1856
07
#1861
17
#1866
07
#1871
17
#1876
07
#1881
17
#1886
07
#1891
17
#1896
07
#1901
17
#1906
b00010010 B
07
b00100011 [
#1911
17
#1916
07
#1921
17
#1926
07
#1931
17
#1936
07
#1941
17
#1946
07
#1951
17
#1956
07
#1961
17
#1966
07
#1971
17
#1976
07
#1981
17
#1986
07
#1991
17
#1996
07
#2001
17
#2006
b00010011 B
07
b00000110 [
#2011
17
#2016
07
#2021
17
#2026
07
#2031
17
#2036
07
#2041
17
#2046
07
#2051
17
#2056
07
#2061
17
#2066
07
#2071
17
#2076
07
#2081
17
#2086
07
#2091
17
#2096
07
#2101
17
#2106
b00001110 B
07
b01011100 [
#2111
17
#2116
07
#2121
17
#2126
07
#2131
17
#2136
07
#2141
17
#2146
07
#2151
17
#2156
07
#2161
17
#2166
07
#2171
17
#2176
07
#2181
17
#2186
07
#2191
17
#2196
07
#2201
17
#2206
b00001000 B
07
b00001101 [
#2211
17
#2216
07
#2221
17
#2226
07
#2231
17
#2236
07
#2241
17
#2246
07
#2251
17
#2256
07
#2261
17
#2266
07
#2271
17
#2276
07
#2281
17
#2286
07
#2291
17
#2296
07
#2301
17
#2306
b00011011 B
07
b01000001 [
#2311
17
#2316
07
#2321
17
#2326
07
#2331
17
#2336
07
#2341
17
#2346
07
#2351
17
#2356
07
#2361
17
#2366
07
#2371
17
#2376
07
#2381
17
#2386
07
#2391
17
#2396
07
#2401
17
#2406
b00010010 B
07
b00100011 [
#2411
17
#2416
07
#2421
17
#2426
07
#2431
17
#2436
07
#2441
17
#2446
07
#2451
17
#2456
07
#2461
17
#2466
07
#2471
17
#2476
07
#2481
17
#2486
07
#2491
17
#2496
07
#2501
17
#2506
b00011000 B
07
b00000011 [
#2511
17
#2516
07
#2521
17
#2526
07
#2531
17
#2536
07
#2541
17
#2546
07
#2551
17
#2556
07
#2561
17
#2566
07
#2571
17
#2576
07
#2581
17
#2586
07
#2591
17
#2596
07
#2601
17
#2606
b00010010 B
07
b00100011 [
#2611
17
#2616
07
#2621
17
#2626
07
#2631
17
#2636
07
#2641
17
#2646
07
#2651
17
#2656
07
#2661
17
#2666
07
#2671
17
#2676
07
#2681
17
#2686
07
#2691
17
#2696
07
#2701
17
#2706
b00000110 B
07
b00000101 [
#2711
17
#2716
07
#2721
17
#2726
07
#2731
17
#2736
07
#2741
17
#2746
07
#2751
17
#2756
07
#2761
17
#2766
07
#2771
17
#2776
07
#2781
17
#2786
07
#2791
17
#2796
07
#2801
17
#2806
b00010010 B
07
b00100011 [
#2811
17
#2816
07
#2821
17
#2826
07
#2831
17
#2836
07
#2841
17
#2846
07
#2851
17
#2856
07
#2861
17
#2866
07
#2871
17
#2876
07
#2881
17
#2886
07
#2891
17
#2896
07
#2901
17
#2906
b00010100 B
07
b00000101 [
#2911
17
#2916
07
#2921
17
#2926
07
#2931
17
#2936
07
#2941
17
#2946
07
#2951
17
#2956
07
#2961
17
#2966
07
#2971
17
#2976
07
#2981
17
#2986
07
#2991
17
#2996
07
#3001
17
#3006
b00000000 B
07
b01001011 [
