test_run_dir/DownTickerTest_30_should_pass/DownTicker.vcd
$date
2025-12-18T08:06+0000
$end
$version
0.2
$end
$comment

$end
$timescale 1ns  $end
$scope module DownTicker $end
 $var wire 8 ! cntReg $end
 $var wire 1 " reset $end
 $var wire 1 # clock $end
 $var wire 1 $ io_tick $end
$upscope $end
$enddefinitions $end
$dumpvars
0"
0#
0$
b00000000 !
$end
#0
1"
1$
#1
b00011101 !
1#
0$
#6
0"
0#
#11
b00011100 !
1#
#16
0#
#21
b00011011 !
1#
#26
0#
#31
b00011010 !
1#
#36
0#
#41
b00011001 !
1#
#46
0#
#51
b00011000 !
1#
#56
0#
#61
b00010111 !
1#
#66
0#
#71
b00010110 !
1#
#76
0#
#81
b00010101 !
1#
#86
0#
#91
b00010100 !
1#
#96
0#
#101
b00010011 !
1#
#106
0#
#111
b00010010 !
1#
#116
0#
#121
b00010001 !
1#
#126
0#
#131
b00010000 !
1#
#136
0#
#141
b00001111 !
1#
#146
0#
#151
b00001110 !
1#
#156
0#
#161
b00001101 !
1#
#166
0#
#171
b00001100 !
1#
#176
0#
#181
b00001011 !
1#
#186
0#
#191
b00001010 !
1#
#196
0#
#201
b00001001 !
1#
#206
0#
#211
b00001000 !
1#
#216
0#
#221
b00000111 !
1#
#226
0#
#231
b00000110 !
1#
#236
0#
#241
b00000101 !
1#
#246
0#
#251
b00000100 !
1#
#256
0#
#261
b00000011 !
1#
#266
0#
#271
b00000010 !
1#
#276
0#
#281
b00000001 !
1#
#286
0#
#291
b00000000 !
1#
1$
