test_run_dir/fifoTest_should_pass/fifoTop.vcd
$date
2025-12-19T14:58+0000
$end
$version
0.2
$end
$comment

$end
$timescale 1ns  $end
$scope module fifoTop $end
 $var wire 8 ) io_deq2_bits $end
 $var wire 8 E io_enq2_bits $end
 $var wire 1 X io_deq1_valid $end
 $var wire 1 t myfifo1 $end
 $var wire 1 v myfifo2 $end
 $var wire 1 "@ io_enq1_valid $end
 $var wire 1 "F io_enq2_valid $end
 $var wire 1 "G clock $end
 $var wire 8 "T io_enq1_bits $end
 $var wire 1 "m io_deq2_valid $end
 $var wire 1 #< io_enq2_ready $end
 $var wire 1 #C io_enq1_ready $end
 $var wire 1 #a reset $end
 $var wire 1 $" io_deq2_ready $end
 $var wire 1 $. io_deq1_ready $end
 $var wire 8 $3 io_deq1_bits $end
  $scope module myfifo2.DoubleBuffer $end
  $upscope $end
  $scope module myfifo1.Buffer_10 $end
  $upscope $end
  $scope module myfifo1.Buffer_12 $end
  $upscope $end
  $scope module myfifo1.Buffer_11 $end
  $upscope $end
  $scope module myfifo1.Buffer_14 $end
  $upscope $end
  $scope module myfifo1.Buffer_13 $end
  $upscope $end
  $scope module myfifo1.Buffer_15 $end
  $upscope $end
  $scope module myfifo2.DoubleBuffer_7 $end
  $upscope $end
  $scope module myfifo2.DoubleBuffer_6 $end
  $upscope $end
  $scope module myfifo2.DoubleBuffer_5 $end
  $upscope $end
  $scope module myfifo2.DoubleBuffer_4 $end
  $upscope $end
  $scope module myfifo2.DoubleBuffer_3 $end
  $upscope $end
  $scope module myfifo2.DoubleBuffer_2 $end
  $upscope $end
  $scope module myfifo2.DoubleBuffer_1 $end
  $upscope $end
  $scope module myfifo1 $end
   $var wire 1 R io_deq_ready $end
   $var wire 1 T io_enq_ready $end
   $var wire 1 W clock $end
   $var wire 1 Z Buffer_10 $end
   $var wire 1 \ Buffer_12 $end
   $var wire 1 ] Buffer_11 $end
   $var wire 1 ^ Buffer_14 $end
   $var wire 1 _ Buffer_13 $end
   $var wire 1 a Buffer_15 $end
   $var wire 1 ", reset $end
   $var wire 8 "[ io_enq_bits $end
   $var wire 1 "` io_deq_valid $end
   $var wire 1 #7 Buffer $end
   $var wire 1 #E Buffer_4 $end
   $var wire 1 #H Buffer_5 $end
   $var wire 1 #I Buffer_2 $end
   $var wire 1 #M Buffer_3 $end
   $var wire 1 #N Buffer_8 $end
   $var wire 1 #P Buffer_9 $end
   $var wire 1 #Q Buffer_6 $end
   $var wire 1 #R Buffer_7 $end
   $var wire 1 #W Buffer_1 $end
   $var wire 8 $! io_deq_bits $end
   $var wire 1 $( io_enq_valid $end
    $scope module Buffer_14 $end
     $var wire 1 " stateReg $end
     $var wire 8 : dataReg $end
     $var wire 1 N io_deq_valid $end
     $var wire 1 "% reset $end
     $var wire 1 ". io_enq_valid $end
     $var wire 8 "? io_enq_bits $end
     $var wire 1 "a io_deq_ready $end
     $var wire 8 #e io_deq_bits $end
     $var wire 1 #t clock $end
     $var wire 1 $- io_enq_ready $end
    $upscope $end
    $scope module Buffer_9 $end
     $var wire 8 # dataReg $end
     $var wire 8 2 io_enq_bits $end
     $var wire 1 "+ io_enq_valid $end
     $var wire 1 "N reset $end
     $var wire 1 "O io_deq_ready $end
     $var wire 8 "c io_deq_bits $end
     $var wire 1 "j clock $end
     $var wire 1 "v stateReg $end
     $var wire 1 #3 io_deq_valid $end
     $var wire 1 #b io_enq_ready $end
    $upscope $end
    $scope module Buffer_11 $end
     $var wire 1 $ io_enq_valid $end
     $var wire 8 O dataReg $end
     $var wire 8 "3 io_deq_bits $end
     $var wire 1 "W io_deq_valid $end
     $var wire 1 "o reset $end
     $var wire 1 "y io_enq_ready $end
     $var wire 1 "~ io_deq_ready $end
     $var wire 1 #- stateReg $end
     $var wire 8 #/ io_enq_bits $end
     $var wire 1 #z clock $end
    $upscope $end
    $scope module Buffer_7 $end
     $var wire 1 % stateReg $end
     $var wire 8 6 io_enq_bits $end
     $var wire 1 g io_enq_ready $end
     $var wire 1 j io_deq_ready $end
     $var wire 1 "U reset $end
     $var wire 8 "g io_deq_bits $end
     $var wire 1 "l io_deq_valid $end
     $var wire 8 #s dataReg $end
     $var wire 1 #u io_enq_valid $end
     $var wire 1 $$ clock $end
    $upscope $end
    $scope module Buffer_8 $end
     $var wire 1 ' reset $end
     $var wire 8 4 io_enq_bits $end
     $var wire 1 Y io_deq_ready $end
     $var wire 8 "d io_deq_bits $end
     $var wire 1 #5 io_deq_valid $end
     $var wire 1 #_ stateReg $end
     $var wire 1 #` io_enq_ready $end
     $var wire 8 #g dataReg $end
     $var wire 1 #h io_enq_valid $end
     $var wire 1 $4 clock $end
    $upscope $end
    $scope module Buffer_12 $end
     $var wire 1 ( io_deq_valid $end
     $var wire 1 3 clock $end
     $var wire 1 D io_enq_valid $end
     $var wire 8 "/ io_deq_bits $end
     $var wire 1 "Q reset $end
     $var wire 1 #& stateReg $end
     $var wire 1 #D io_enq_ready $end
     $var wire 1 #J io_deq_ready $end
     $var wire 8 #m io_enq_bits $end
     $var wire 8 #~ dataReg $end
    $upscope $end
    $scope module Buffer_4 $end
     $var wire 1 + io_enq_ready $end
     $var wire 1 h io_deq_ready $end
     $var wire 8 k io_enq_bits $end
     $var wire 1 "8 reset $end
     $var wire 8 "J dataReg $end
     $var wire 1 "t clock $end
     $var wire 1 "u io_enq_valid $end
     $var wire 1 #. stateReg $end
     $var wire 1 #4 io_deq_valid $end
     $var wire 8 #O io_deq_bits $end
    $upscope $end
    $scope module Buffer_5 $end
     $var wire 1 . io_enq_ready $end
     $var wire 1 8 io_deq_ready $end
     $var wire 1 "' reset $end
     $var wire 8 "A dataReg $end
     $var wire 8 "S io_enq_bits $end
     $var wire 1 "e io_enq_valid $end
     $var wire 8 "h io_deq_bits $end
     $var wire 1 #6 io_deq_valid $end
     $var wire 1 #v clock $end
     $var wire 1 $6 stateReg $end
    $upscope $end
    $scope module Buffer_6 $end
     $var wire 8 5 dataReg $end
     $var wire 1 9 io_deq_ready $end
     $var wire 8 l io_enq_bits $end
     $var wire 1 "9 stateReg $end
     $var wire 1 "L reset $end
     $var wire 1 "M io_enq_ready $end
     $var wire 8 "f io_deq_bits $end
     $var wire 1 "n io_deq_valid $end
     $var wire 1 "s io_enq_valid $end
     $var wire 1 #Z clock $end
    $upscope $end
    $scope module Buffer_2 $end
     $var wire 1 7 stateReg $end
     $var wire 8 i io_enq_bits $end
     $var wire 1 "" io_deq_ready $end
     $var wire 1 "6 io_enq_valid $end
     $var wire 1 "p reset $end
     $var wire 1 #0 clock $end
     $var wire 8 #F io_deq_bits $end
     $var wire 1 #X io_deq_valid $end
     $var wire 8 #^ dataReg $end
     $var wire 1 #| io_enq_ready $end
    $upscope $end
    $scope module Buffer_3 $end
     $var wire 1 ; clock $end
     $var wire 1 ? reset $end
     $var wire 1 d io_enq_ready $end
     $var wire 1 e stateReg $end
     $var wire 8 | dataReg $end
     $var wire 1 "0 io_deq_ready $end
     $var wire 1 "E io_enq_valid $end
     $var wire 8 "^ io_deq_bits $end
     $var wire 1 #[ io_deq_valid $end
     $var wire 8 $% io_enq_bits $end
    $upscope $end
    $scope module Buffer_10 $end
     $var wire 1 = io_enq_valid $end
     $var wire 1 Q reset $end
     $var wire 1 c io_deq_valid $end
     $var wire 8 "( dataReg $end
     $var wire 1 "4 stateReg $end
     $var wire 8 "D io_enq_bits $end
     $var wire 1 "\ io_enq_ready $end
     $var wire 8 #f io_deq_bits $end
     $var wire 1 #j clock $end
     $var wire 1 #w io_deq_ready $end
    $upscope $end
    $scope module Buffer_13 $end
     $var wire 1 U io_enq_valid $end
     $var wire 1 p io_deq_valid $end
     $var wire 8 "< io_enq_bits $end
     $var wire 1 "X stateReg $end
     $var wire 1 "Z reset $end
     $var wire 1 #" io_deq_ready $end
     $var wire 8 #T dataReg $end
     $var wire 8 #c io_deq_bits $end
     $var wire 1 #l io_enq_ready $end
     $var wire 1 $* clock $end
    $upscope $end
    $scope module Buffer $end
     $var wire 8 f io_deq_bits $end
     $var wire 1 "C io_deq_valid $end
     $var wire 1 "b reset $end
     $var wire 1 #% io_enq_ready $end
     $var wire 1 #, io_deq_ready $end
     $var wire 8 #2 io_enq_bits $end
     $var wire 1 #A stateReg $end
     $var wire 8 #i dataReg $end
     $var wire 1 $' clock $end
     $var wire 1 $+ io_enq_valid $end
    $upscope $end
    $scope module Buffer_1 $end
     $var wire 1 q io_deq_valid $end
     $var wire 1 x clock $end
     $var wire 1 y reset $end
     $var wire 1 ~ io_enq_valid $end
     $var wire 1 "$ stateReg $end
     $var wire 1 "1 io_deq_ready $end
     $var wire 8 "P io_enq_bits $end
     $var wire 8 "x dataReg $end
     $var wire 1 #Y io_enq_ready $end
     $var wire 8 $2 io_deq_bits $end
    $upscope $end
    $scope module Buffer_15 $end
     $var wire 1 "! io_enq_valid $end
     $var wire 8 "5 io_deq_bits $end
     $var wire 8 "= dataReg $end
     $var wire 1 "B io_deq_ready $end
     $var wire 1 "K reset $end
     $var wire 1 #\ clock $end
     $var wire 1 #] stateReg $end
     $var wire 1 #k io_enq_ready $end
     $var wire 8 #p io_enq_bits $end
     $var wire 1 $/ io_deq_valid $end
    $upscope $end
  $upscope $end
  $scope module myfifo2 $end
   $var wire 1 F DoubleBuffer_7 $end
   $var wire 1 G DoubleBuffer_6 $end
   $var wire 1 H DoubleBuffer_5 $end
   $var wire 1 I DoubleBuffer_4 $end
   $var wire 1 J DoubleBuffer_3 $end
   $var wire 1 K DoubleBuffer_2 $end
   $var wire 1 L DoubleBuffer_1 $end
   $var wire 1 m reset $end
   $var wire 8 r io_enq_bits $end
   $var wire 1 s io_deq_ready $end
   $var wire 1 z io_enq_ready $end
   $var wire 1 "R DoubleBuffer $end
   $var wire 1 "i io_enq_valid $end
   $var wire 1 #$ io_deq_valid $end
   $var wire 8 #9 io_deq_bits $end
   $var wire 1 #= clock $end
    $scope module DoubleBuffer_6 $end
     $var wire 1 ! reset $end
     $var wire 8 B io_deq_bits $end
     $var wire 2 P stateReg $end
     $var wire 1 [ clock $end
     $var wire 8 ` shadowReg $end
     $var wire 1 w io_deq_ready $end
     $var wire 1 { io_enq_ready $end
     $var wire 1 #' io_enq_valid $end
     $var wire 8 #* io_enq_bits $end
     $var wire 8 #? dataReg $end
     $var wire 1 #q io_deq_valid $end
    $upscope $end
    $scope module DoubleBuffer_1 $end
     $var wire 1 & io_deq_valid $end
     $var wire 8 - io_deq_bits $end
     $var wire 8 1 dataReg $end
     $var wire 1 < reset $end
     $var wire 2 @ stateReg $end
     $var wire 1 A clock $end
     $var wire 8 "7 shadowReg $end
     $var wire 8 "k io_enq_bits $end
     $var wire 1 "| io_enq_ready $end
     $var wire 1 #+ io_deq_ready $end
     $var wire 1 $) io_enq_valid $end
    $upscope $end
    $scope module DoubleBuffer_4 $end
     $var wire 8 * io_deq_bits $end
     $var wire 8 S dataReg $end
     $var wire 1 n reset $end
     $var wire 1 "# io_enq_valid $end
     $var wire 8 "2 shadowReg $end
     $var wire 1 "] io_deq_ready $end
     $var wire 2 "r stateReg $end
     $var wire 8 "} io_enq_bits $end
     $var wire 1 #> clock $end
     $var wire 1 #n io_deq_valid $end
     $var wire 1 $1 io_enq_ready $end
    $upscope $end
    $scope module DoubleBuffer_5 $end
     $var wire 8 , io_deq_bits $end
     $var wire 2 u stateReg $end
     $var wire 8 ") dataReg $end
     $var wire 1 "; io_deq_ready $end
     $var wire 1 "_ io_enq_valid $end
     $var wire 8 ## io_enq_bits $end
     $var wire 8 #8 shadowReg $end
     $var wire 1 #B reset $end
     $var wire 1 #V clock $end
     $var wire 1 #o io_enq_ready $end
     $var wire 1 $5 io_deq_valid $end
    $upscope $end
    $scope module DoubleBuffer_2 $end
     $var wire 8 / io_deq_bits $end
     $var wire 1 > io_deq_valid $end
     $var wire 2 b stateReg $end
     $var wire 8 "- shadowReg $end
     $var wire 1 "z clock $end
     $var wire 8 "{ io_enq_bits $end
     $var wire 1 #1 reset $end
     $var wire 1 #G io_enq_ready $end
     $var wire 1 #U io_deq_ready $end
     $var wire 1 #x io_enq_valid $end
     $var wire 8 $0 dataReg $end
    $upscope $end
    $scope module DoubleBuffer_3 $end
     $var wire 8 0 io_deq_bits $end
     $var wire 1 V clock $end
     $var wire 1 o io_enq_valid $end
     $var wire 1 } io_deq_valid $end
     $var wire 1 "* reset $end
     $var wire 1 "> io_deq_ready $end
     $var wire 2 "I stateReg $end
     $var wire 8 "V shadowReg $end
     $var wire 8 #! io_enq_bits $end
     $var wire 8 #: dataReg $end
     $var wire 1 #r io_enq_ready $end
    $upscope $end
    $scope module DoubleBuffer_7 $end
     $var wire 8 C io_deq_bits $end
     $var wire 1 M io_enq_ready $end
     $var wire 1 "q clock $end
     $var wire 1 "w reset $end
     $var wire 8 #( io_enq_bits $end
     $var wire 8 #) shadowReg $end
     $var wire 1 #K io_deq_valid $end
     $var wire 1 #S io_enq_valid $end
     $var wire 1 #y io_deq_ready $end
     $var wire 8 #} dataReg $end
     $var wire 2 $, stateReg $end
    $upscope $end
    $scope module DoubleBuffer $end
     $var wire 1 "& io_enq_valid $end
     $var wire 1 ": io_enq_ready $end
     $var wire 8 "H io_enq_bits $end
     $var wire 8 "Y dataReg $end
     $var wire 1 #; reset $end
     $var wire 1 #@ io_deq_valid $end
     $var wire 1 #L clock $end
     $var wire 1 #d io_deq_ready $end
     $var wire 2 #{ stateReg $end
     $var wire 8 $# shadowReg $end
     $var wire 8 $& io_deq_bits $end
    $upscope $end
  $upscope $end
  $scope module myfifo1.Buffer $end
  $upscope $end
  $scope module myfifo1.Buffer_4 $end
  $upscope $end
  $scope module myfifo1.Buffer_5 $end
  $upscope $end
  $scope module myfifo1.Buffer_2 $end
  $upscope $end
  $scope module myfifo1.Buffer_3 $end
  $upscope $end
  $scope module myfifo1.Buffer_8 $end
  $upscope $end
  $scope module myfifo1.Buffer_9 $end
  $upscope $end
  $scope module myfifo1.Buffer_6 $end
  $upscope $end
  $scope module myfifo1.Buffer_7 $end
  $upscope $end
  $scope module myfifo1.Buffer_1 $end
  $upscope $end
$upscope $end
$enddefinitions $end
$dumpvars
b00000000 k
03
b00000000 l
b00000000 f
b00000000 i
07
08
09
0;
0<
0=
0>
0?
b00000000 `
0A
b00000000 |
0D
0F
0G
0H
0I
b00000000 r
0J
0K
0L
0M
0N
0Q
0R
0T
0U
0V
0W
0X
b00000000 C
0Y
b00000000 B
0Z
b00000000 E
0[
0\
0]
0^
0_
0a
0c
0d
0e
0g
0h
b00000000 S
0j
b00000000 O
0m
0n
0o
0p
0q
b00 #{
0s
0t
0v
0w
0x
0y
0z
0{
0}
0~
0"!
0""
0"#
0"$
b00 $,
0"%
0"&
0"'
0"*
0"+
0",
b00 "r
0".
0"0
0"1
b00000000 "g
b00000000 "f
0"4
b00000000 #F
b00000000 "d
b00000000 $&
0"6
b00000000 "k
0"8
0"9
b00000000 "h
0":
0";
b00000000 #O
b00000000 $0
0">
b00000000 #T
0"@
b00000000 $3
0#"
b00000000 $2
b00 "I
0"B
0"C
0#$
0#%
0"E
0#&
0"F
0#'
b00000000 "{
0"G
b00000000 "x
0#+
0"K
0#,
0"L
0#-
b00000000 "}
b00000000 #^
0"M
0#.
0"N
0"O
0#0
b00000000 #c
0#1
0"Q
0"R
0#3
0#4
b00000000 #g
0#5
b00000000 #f
0"U
0#6
b00000000 #e
0#7
0"W
0"X
b00000000 #i
0"Z
0#;
b00000000 #p
0#<
0"\
0#=
0"]
0#>
b00000000 #m
0"_
0#@
b00000000 #s
0"`
0#A
0$"
0"a
0#B
0"b
0#C
0$$
0#D
0#E
0"e
0$'
0#G
0$(
0#H
0$)
0#I
0$*
0"i
0#J
0$+
0"j
0#K
0#L
0$-
0"l
0#M
0$.
b00000000 #~
0"m
0#N
0$/
b00000000 #}
0"n
0"o
0#P
0$1
0"p
0#Q
0"q
0#R
0#S
0$4
0"s
0$5
0"t
0#U
0$6
0"u
0#V
0"v
0#W
0"w
0#X
0#Y
0"y
0#Z
0"z
0#[
0#\
0"|
0#]
0"~
0#_
b00 u
0#`
0#a
0#b
0#d
0#h
0#j
0#k
0#l
0#n
0#o
0#q
0#r
b00 b
0#t
0#u
0#v
0#w
0#x
0#y
0#z
0#|
b00 P
b00 @
b00000000 ")
b00000000 "(
b00000000 "/
b00000000 "-
b00000000 "3
b00000000 "2
b00000000 "7
b00000000 "5
b00000000 "?
b00000000 "=
b00000000 "<
b00000000 ##
b00000000 "A
b00000000 #!
b00000000 #(
b00000000 "D
b00000000 "J
b00000000 #*
b00000000 "H
b00000000 #)
b00000000 #/
b00000000 "S
b00000000 #2
b00000000 "P
b00000000 #8
b00000000 "V
b00000000 "T
b00000000 "[
b00000000 "Y
b00000000 #:
b00000000 #9
b00000000 $!
b00000000 "^
b00000000 #?
b00000000 "c
b00000000 $%
b00000000 $#
b00000000 *
b00000000 -
b00000000 ,
b00000000 )
b00000000 #
b00000000 :
b00000000 6
b00000000 2
b00000000 5
b00000000 4
b00000000 /
b00000000 1
b00000000 0
0!
0"
0$
0%
0&
0'
0(
0+
0.
$end
#0
1"b
1#C
1#D
1#G
1#J
1$-
1$1
1"o
1"p
1#U
1"w
1#Y
1"y
1"|
1"~
1#`
1#a
1#b
1!
1#d
1'
1#k
1#l
1+
1#o
1.
1#r
1#w
18
19
1#|
1<
1?
1""
1"%
1"'
1"*
1",
1M
1"0
1"1
1Q
1T
1"8
1":
1Y
1";
1">
1#"
1#%
1d
1g
1h
1#+
1"K
1#,
1j
1"L
1"M
1"N
1m
1"O
1n
1#1
1"Q
1"U
1w
1#;
1"Z
1y
1#<
1z
1"\
1{
1"]
1#B
1"a
#1
1$$
1A
1$'
1$*
1"j
1#L
1"q
1$4
1"t
1#V
1V
1W
1#Z
1"z
1#\
1[
1"G
1#j
1#0
1#t
13
1#v
1#z
1x
1#=
1;
1#>
#6
0$$
0"b
0$'
1$(
0$*
1$+
1"i
0"j
0#L
1$.
0"o
0"p
0"q
0$4
0"t
0#V
0"w
0#Z
0"z
0#\
0#a
0!
0'
0#j
0#t
03
0#v
1#y
0#z
0;
0<
0?
0A
0"%
1"&
0"'
0"*
0",
0Q
1R
0V
0"8
0W
0[
1"@
1"B
1"F
0"G
0"K
0"L
0"N
0m
0#0
0n
0#1
0"Q
1s
0"U
0x
0#;
0"Z
0y
0#=
0#>
1$"
0#B
#11
1$$
0#C
1A
1$'
1$)
1$*
1"j
1#L
1"q
1$4
1"t
1#V
0T
1V
1W
1#Z
1"z
1#\
1[
1"C
0#%
1"G
1#j
1#0
1#t
13
1#v
1#z
1x
b01 #{
1#=
1;
1#>
1#@
1~
1#A
#16
0$$
0A
0$'
b00000010 E
0$*
0"j
0#L
0"q
0$4
0"t
0#V
0V
0W
0#Z
0"z
0#\
0[
0"G
b00000010 "H
0#j
0#0
b00000010 #2
0#t
b00000010 r
b00000010 "T
03
0#v
0#z
0x
b00000010 "[
0#=
0;
0#>
#21
b01 @
1$$
1#C
1A
1"$
b00000010 $&
1$'
1$*
1"j
1#L
b00000010 "k
1"q
1$4
1"t
1#V
1T
1"6
1V
0#Y
1W
1#Z
1"z
1#\
1[
0"C
1#%
1"G
1&
1#j
0#,
1#0
1q
1#t
13
1#v
1#x
b00000010 "Y
1#z
1x
1#=
1;
1#>
0~
0#A
#26
0$$
0A
0$'
b00000100 E
0$*
0"j
0#L
0"q
0$4
0"t
0#V
0V
0W
0#Z
0"z
0#\
0[
0"G
b00000100 "H
0#j
0#0
b00000100 #2
0#t
b00000100 r
b00000100 "T
03
0#v
0#z
0x
b00000100 "[
0#=
0;
0#>
#31
1$$
0#C
b00000100 $&
1$'
1$*
1"j
1#L
b00000100 "k
1"q
1$4
1"t
1#V
1#X
1#Y
1#Z
1"z
b00000010 "{
1#\
b00000100 #i
1#j
b00000010 -
b00000010 1
1#t
13
1#v
17
1#z
0#|
1;
1>
1A
0"$
0"1
0T
0"6
1V
1W
1[
1"C
b01 b
0#%
1"E
1"G
b00000100 f
1#,
1#0
b00000100 "P
1o
0q
b00000100 "Y
1x
1#=
1#>
1~
1#A
#36
0$$
0A
0$'
b00000110 E
0$*
0"j
0#L
0"q
0$4
0"t
0#V
0V
0W
0#Z
0"z
0#\
0[
0"G
b00000110 "H
0#j
0#0
b00000110 #2
0#t
b00000110 r
b00000110 "T
03
0#v
0#z
0x
b00000110 "[
0#=
0;
0#>
#41
1$$
1#C
b00000110 $&
1$'
1$*
1"j
1#L
b00000110 "k
b00000010 $0
b00000100 $2
1"q
1$4
1"t
1#V
1"u
0#X
b00000100 "x
0#Y
1#Z
1"z
1#[
b00000100 "{
1#\
1#j
b00000100 -
b00000010 /
b00000100 1
1#t
13
1#v
07
1#z
1#|
1;
0""
1A
1"#
1"$
1"1
1T
1"6
1V
1W
1[
b00000010 #!
0"C
1#%
0"E
0d
1e
1"G
b01 "I
b00000100 i
0#,
1#0
1q
b00000110 "Y
1x
1#=
1#>
1}
0~
0#A
#46
0$$
0A
0$'
b00001000 E
0$*
0"j
0#L
0"q
0$4
0"t
0#V
0V
0W
0#Z
0"z
0#\
0[
0"G
b00001000 "H
0#j
0#0
b00001000 #2
0#t
b00001000 r
b00001000 "T
03
0#v
0#z
0x
b00001000 "[
0#=
0;
0#>
#51
1$$
0#C
b00000100 $%
b00001000 $&
1"e
b00000100 #F
1$'
1$*
1"j
1#L
b00001000 "k
b00000100 $0
1"q
b01 "r
1$4
1"t
1#V
0"u
1#X
1#Y
1#Z
1"z
0#[
b00000110 "{
1#\
b00000010 "}
b00000100 #^
b00001000 #i
1#j
0+
1#n
b00000110 -
b00000100 /
b00000010 0
b00000110 1
1#t
13
1#v
17
1#z
0#|
1;
1""
1A
0"$
0"0
0"1
0T
0"6
1V
1W
1[
b00000100 #!
1"C
0#%
1"E
1d
0e
1"G
b00001000 f
1#,
1#.
1#0
b00001000 "P
0q
1#4
b00000010 #:
b00001000 "Y
1x
1#=
1#>
1"_
1~
1#A
#56
0$$
0A
0$'
b00001010 E
0$*
0"j
0#L
0"q
0$4
0"t
0#V
0V
0W
0#Z
0"z
0#\
0[
0"G
b00001010 "H
0#j
0#0
b00001010 #2
0#t
b00001010 r
b00001010 "T
03
0#v
0#z
0x
b00001010 "[
0#=
0;
0#>
#61
1$$
1#C
b00001010 $&
0"e
1$'
1$*
1"j
1#L
b00001010 "k
b00000110 $0
b00001000 $2
1"q
1$4
1$5
1"s
1$6
1"t
1#V
1"u
0#X
b00001000 "x
0#Y
1#Z
1"z
1#[
b00001000 "{
1#\
b00000100 "}
1#j
b00000010 *
1+
b00001000 -
0.
b00000110 /
b00000100 0
b00001000 1
1#t
13
1#v
07
1#z
1#|
1;
0""
1A
1"$
1"0
1"1
b00000010 S
1T
1"6
1V
1W
1[
b00000110 #!
b00000010 ##
0"C
1#%
0"E
0d
1#'
1e
1"G
0h
b00001000 i
0#,
b00000100 k
0#.
1#0
1q
0#4
1#6
b01 u
b00000100 #:
b00001010 "Y
1x
1#=
1#>
b00000100 |
b00000100 "^
0~
0#A
#66
0$$
0A
0$'
b00001100 E
0$*
0"j
0#L
0"q
0$4
0"t
0#V
0V
0W
0#Z
0"z
0#\
0[
0"G
b00001100 "H
0#j
0#0
b00001100 #2
0#t
b00001100 r
b00001100 "T
03
0#v
0#z
0x
b00001100 "[
0#=
0;
0#>
#71
1$$
0#C
b00001000 $%
b00001100 $&
1"e
b00001000 #F
1$'
1$*
1"j
1#L
b00001100 "k
b00001000 $0
1"n
b00000100 #O
1"q
1#S
1$4
0"s
0$6
1"t
1#V
0"u
1#X
1#Y
1#Z
1"z
0#[
b00001010 "{
1#\
b00000110 "}
b00001000 #^
b00001100 #i
1#j
b00000100 *
0+
b00000010 ,
b00001010 -
1.
1#q
b00001000 /
b00000110 0
b00001010 1
1#t
1#u
13
1#v
17
1#z
08
0#|
1;
1""
1A
0"$
b00000010 ")
0"0
0"1
b01 P
b00000100 S
0T
0"6
1V
1W
1"9
1[
b00001000 #!
b00000100 ##
1"C
0#%
1"E
1d
0e
1"G
b00001100 f
b00000010 #*
1h
b00000100 "J
1#,
0"M
1#.
1#0
b00001100 "P
0q
b00000100 "S
1#4
0#6
b00000110 #:
b00001100 "Y
1x
1#=
1#>
1~
1#A
#76
0$$
0A
0$'
b00001110 E
0$*
0"j
0#L
0"q
0$4
0"t
0#V
0V
0W
0#Z
0"z
0#\
0[
0"G
b00001110 "H
0#j
0#0
b00001110 #2
0#t
b00001110 r
b00001110 "T
03
0#v
0#z
0x
b00001110 "[
0#=
0;
0#>
#81
1%
b00000110 *
1+
b00000100 ,
b00001100 -
0.
b00001010 /
b00001000 0
b00001100 1
13
07
18
09
1;
0""
1A
b00000010 B
1"$
b00000100 ")
1"0
1"1
b00000110 S
1T
1"6
1V
1W
0"9
1[
b00001010 #!
b00000100 "A
b00000110 ##
1#$
0"C
1#%
0"E
0d
1e
1"G
b00000010 #(
0g
b00000100 #*
0h
b00001100 i
0#,
b00001000 k
1"M
0#.
b00000100 l
1#0
1q
0#4
1#6
b00001000 #:
b00001110 "Y
1x
1#=
1#>
b00001000 |
b00000010 #?
b00001000 "^
0~
0#A
1$$
1#C
b00001110 $&
0"e
1$'
1$*
b00000100 "h
b01 $,
1#K
1"j
1#L
b00001110 "k
1"l
1"m
b00001010 $0
0"n
b00001100 $2
1"q
1$4
1"s
1$6
1"t
1#V
1"u
0#X
b00001100 "x
0#Y
1#Z
1"z
1#[
b00001100 "{
1#\
b00001000 "}
1#h
1#j
1#t
0#u
1#v
1#z
1#|
#86
0$$
0A
0$'
b00010000 E
0$*
0"j
0#L
0"q
0$4
0"t
0#V
0V
0W
0#Z
0"z
0#\
0[
0"G
b00010000 "H
0#j
0#0
b00010000 #2
0#t
b00010000 r
b00010000 "T
03
0#v
0#z
0x
b00010000 "[
0#=
0;
0#>
#91
0%
b00000010 )
b00001000 *
0+
b00000110 ,
b00001110 -
1.
b00001100 /
b00001010 0
b00001110 1
13
b00000100 5
b00000100 6
17
08
19
1;
1""
1A
b00000100 B
0"$
b00000010 C
b00000110 ")
1"+
0"0
0"1
b00001000 S
0T
0"6
1V
1W
1"9
1[
b00001100 #!
b00001000 ##
1"C
0#%
1"E
1d
0e
1"G
b00000100 #(
b00010000 f
1g
b00000110 #*
1h
b00001000 "J
1#,
0j
0"M
1#.
1#0
b00010000 "P
0q
b00001000 "S
1#4
1#5
0#6
b00000010 #9
b00001010 #:
b00010000 "Y
1x
1#=
1#>
b00000100 #?
1~
1#A
1$$
0#C
b00001100 $%
b00010000 $&
1"e
b00001100 #F
1$'
b00000100 "f
1$*
1"j
1#L
b00010000 "k
0"l
b00001100 $0
1"n
b00001000 #O
1"q
1$4
0"s
0$6
1"t
1#V
0"u
1#X
1#Y
1#Z
1"z
0#[
b00001110 "{
1#\
b00001010 "}
b00001100 #^
1#_
0#`
0#h
b00010000 #i
1#j
1#t
1#u
1#v
1#z
0#|
b00000010 #}
#96
0$$
0A
0$'
b00010010 E
0$*
0"j
0#L
0"q
0$4
0"t
0#V
0V
0W
0#Z
0"z
0#\
0[
0"G
b00010010 "H
0#j
0#0
b00010010 #2
0#t
b00010010 r
b00010010 "T
03
0#v
0#z
0x
b00010010 "[
0#=
0;
0#>
#101
1%
b00000100 )
b00001010 *
1+
b00001000 ,
b00010000 -
0.
b00001110 /
b00001100 0
b00010000 1
13
b00000100 4
07
18
09
1;
1=
0""
1A
b00000110 B
1"$
b00000100 C
b00001000 ")
0"+
1"0
1"1
b00001010 S
1T
1"6
1V
1W
0"9
0Y
1[
b00001110 #!
b00001000 "A
b00001010 ##
0"C
1#%
0"E
0d
1e
1"G
b00000110 #(
0g
b00001000 #*
0h
b00010000 i
0#,
1j
b00001100 k
1"M
0#.
b00001000 l
1#0
1#3
1q
0#4
0#5
1#6
b00000100 #9
b00001100 #:
b00010010 "Y
1x
1#=
1#>
b00001100 |
b00000110 #?
b00001100 "^
0~
0#A
1$$
1#C
b00010010 $&
0"e
1$'
b00000100 "g
1$*
b00001000 "h
1"j
1#L
b00010010 "k
1"l
b00001110 $0
0"n
b00010000 $2
1"q
1$4
1"s
1$6
1"t
1#V
1"u
1"v
0#X
b00010000 "x
0#Y
1#Z
1"z
1#[
b00010000 "{
1#\
b00001100 "}
0#_
1#`
0#b
1#h
1#j
b00000100 #s
1#t
0#u
1#v
1#z
1#|
b00000100 #}
#106
0$$
0A
0$'
b00010100 E
0$*
0"j
0#L
0"q
0$4
0"t
0#V
0V
0W
0#Z
0"z
0#\
0[
0"G
b00010100 "H
0#j
0#0
b00010100 #2
0#t
b00010100 r
b00010100 "T
03
0#v
0#z
0x
b00010100 "[
0#=
0;
0#>
