test_run_dir/DUTTestWave_should_pass_and_REC_wave/DUT.vcd
$date
2025-12-12T06:27+0000
$end
$version
0.2
$end
$comment

$end
$timescale 1ns  $end
$scope module DUT $end
 $var wire 2 ! io_out $end
 $var wire 2 " io_b $end
 $var wire 2 # io_a $end
 $var wire 1 $ reset $end
 $var wire 1 % clock $end
$upscope $end
$enddefinitions $end
$dumpvars
0$
0%
b00 !
b00 #
b00 "
$end
#0
1$
#1
1%
#6
b10 !
b10 "
b11 #
0$
0%
#11
1%
#16
b00 !
b01 "
b00 #
0%
#21
1%
#26
0%
#31
1%
#36
b01 !
b11 #
0%
#41
1%
#46
b00 !
b10 "
b00 #
0%
#51
1%
#56
b01 "
0%
#61
1%
#66
b01 !
b11 #
0%
#71
1%
#76
b00 !
b00 #
0%
#81
1%
#86
b10 "
0%
#91
1%
#96
b01 !
b01 "
b11 #
0%
#101
1%
#106
b00 !
b00 #
0%
#111
1%
#116
0%
#121
1%
#126
b10 !
b10 "
b11 #
0%
#131
1%
#136
b00 !
b01 "
b00 #
0%
#141
1%
#146
0%
#151
1%
#156
b01 !
b11 #
0%
#161
1%
#166
b00 !
b10 "
b00 #
0%
#171
1%
#176
b01 "
0%
#181
1%
#186
b01 !
b11 #
0%
#191
1%
#196
b00 !
b00 #
0%
#201
1%
#206
b00 "
0%
