test_run_dir/mealyTest_should_pass/mealy.vcd
$date
2025-12-15T14:06+0000
$end
$version
0.2
$end
$comment

$end
$timescale 1ns  $end
$scope module mealy $end
 $var wire 1 ! io_risingEdge $end
 $var wire 1 " io_din $end
 $var wire 1 # io_risingEdge_ref_REG $end
 $var wire 1 $ clock $end
 $var wire 1 % stateReg $end
 $var wire 1 & reset $end
 $var wire 1 ' io_risingEdge_ref $end
$upscope $end
$enddefinitions $end
$dumpvars
0!
0"
0#
0$
0%
0&
0'
$end
#0
1&
#1
1$
#6
0$
0&
#11
1$
#16
0$
#21
1$
#26
0$
#31
1$
#36
0$
#41
1$
#46
0$
#51
1$
#56
0$
#61
1$
#66
0$
#71
1$
#76
0$
#81
1$
#86
0$
#91
1$
#96
0$
#101
1$
#106
0$
#111
1$
#116
0$
#121
1$
#126
0$
#131
1$
#136
0$
#141
1$
#146
0$
#151
1$
#156
1!
1"
0$
1'
#161
0!
1#
1$
1%
0'
#166
0"
0$
#171
0#
1$
0%
#176
0$
#181
1$
#186
0$
#191
1$
#196
0$
#201
1$
#206
0$
#211
1$
#216
0$
#221
1$
#226
0$
#231
1$
#236
0$
#241
1$
#246
0$
#251
1$
#256
0$
#261
1$
#266
0$
#271
1$
#276
0$
#281
1$
#286
0$
#291
1$
#296
0$
#301
1$
#306
0$
#311
1$
#316
0$
#321
1$
#326
0$
#331
1$
#336
1!
1"
0$
1'
#341
0!
1#
1$
1%
0'
#346
0"
0$
#351
0#
1$
0%
