test_run_dir/DUTTest_should_pass/DUT.vcd
$date
2025-12-12T06:54+0000
$end
$version
0.2
$end
$comment

$end
$timescale 1ns  $end
$scope module DUT $end
 $var wire 2 ! io_out $end
 $var wire 2 " io_b $end
 $var wire 2 # io_a $end
 $var wire 1 $ reset $end
 $var wire 1 % clock $end
$upscope $end
$enddefinitions $end
$dumpvars
0$
0%
b00 !
b00 #
b00 "
$end
#0
1$
#1
1%
#6
b01 "
0$
0%
#11
1%
#16
b10 !
b11 "
b10 #
0%
#21
1%
#26
b01 !
b01 "
b11 #
0%
#31
1%
#36
b00 !
b00 "
b00 #
0%
#41
1%
#46
b01 "
0%
#51
1%
#56
b10 "
0%
#61
1%
#66
b11 "
0%
#71
1%
#76
b00 !
b00 "
b01 #
0%
#81
1%
#86
b01 !
b01 "
0%
#91
1%
#96
b00 !
b10 "
0%
#101
1%
#106
b01 !
b11 "
0%
#111
1%
#116
b00 !
b00 "
b10 #
0%
#121
1%
#126
b01 "
0%
#131
1%
#136
b10 !
b10 "
0%
#141
1%
#146
b11 "
0%
#151
1%
#156
b00 !
b00 "
b11 #
0%
#161
1%
#166
b01 !
b01 "
0%
#171
1%
#176
b10 !
b10 "
0%
#181
1%
#186
b11 !
b11 "
0%
#191
1%
#196
b00 "
b00 #
0%
