test_run_dir/FSMDTest_should_pass/FSMD.vcd
$date
2025-12-17T14:35+0000
$end
$version
0.2
$end
$comment

$end
$timescale 1ns  $end
$scope module FSMD $end
 $var wire 8 ! io_popCnt $end
 $var wire 8 $ io_din $end
 $var wire 1 & data_fsm $end
 $var wire 1 ) io_popCntReady $end
 $var wire 1 , io_popCntValid $end
 $var wire 1 - clock $end
 $var wire 1 2 reset $end
 $var wire 1 3 main_fsm $end
 $var wire 1 7 io_dinReady $end
 $var wire 1 = io_dinValid $end
  $scope module data_fsm $end
   $var wire 4 # io_popCnt $end
   $var wire 4 ' counterReg $end
   $var wire 8 ( io_din $end
   $var wire 1 + io_done $end
   $var wire 8 . dataReg $end
   $var wire 1 1 io_load $end
   $var wire 8 5 popCntReg $end
   $var wire 1 8 clock $end
   $var wire 1 9 done $end
   $var wire 1 < reset $end
  $upscope $end
  $scope module main_fsm $end
   $var wire 1 " io_dinValid $end
   $var wire 1 % io_popCntReady $end
   $var wire 1 * io_popCntValid $end
   $var wire 2 / state $end
   $var wire 1 0 io_done $end
   $var wire 1 4 io_load $end
   $var wire 1 6 reset $end
   $var wire 1 : clock $end
   $var wire 1 ; io_dinReady $end
  $upscope $end
$upscope $end
$enddefinitions $end
$dumpvars
00
01
02
03
04
06
07
b00000000 (
08
09
0:
b00 /
0;
b00000000 $
0<
0=
b00000000 !
b00000000 5
b00000000 .
b0000 #
b0000 '
0"
0%
0&
0)
0*
0+
0,
0-
$end
#0
10
12
16
17
19
1+
1;
1<
#1
18
1:
1-
#6
02
06
08
0:
0<
0-
#11
18
1:
1-
#16
08
0:
0-
#21
18
1:
1-
#26
08
0:
0-
#31
18
1:
1-
#36
08
0:
0-
#41
18
1:
1-
#46
08
0:
0-
#51
18
1:
1-
#56
08
0:
0-
#61
18
1:
1-
#66
08
0:
0-
#71
18
1:
1-
#76
08
0:
0-
#81
18
1:
1-
#86
08
0:
0-
#91
18
1:
1-
#96
08
0:
0-
#101
18
1:
1-
#106
08
0:
0-
#111
18
1:
1-
#116
08
0:
0-
#121
18
1:
1-
#126
08
0:
0-
#131
18
1:
1-
#136
08
0:
0-
#141
18
1:
1-
#146
08
0:
0-
#151
18
1:
1-
#156
08
0:
0-
#161
18
1:
1-
#166
08
0:
0-
#171
18
1:
1-
#176
08
0:
0-
#181
18
1:
1-
#186
08
0:
0-
#191
18
1:
1-
#196
08
0:
0-
#201
18
1:
1-
#206
11
1"
b10101000 $
14
b10101000 (
08
0:
0-
1=
#211
00
b1000 '
18
09
1:
0+
1-
b10101000 .
b01 /
#216
01
0"
04
08
0:
0-
0=
#221
b0111 '
18
1:
1-
b01010100 .
#226
08
0:
0-
#231
b0110 '
18
1:
1-
b00101010 .
#236
08
0:
0-
#241
b0101 '
18
1:
1-
b00010101 .
#246
08
0:
0-
#251
b00000001 !
b0001 #
b00000001 5
b0100 '
18
1:
1-
b00001010 .
#256
08
0:
0-
#261
b0011 '
18
1:
1-
b00000101 .
#266
08
0:
0-
#271
b00000010 !
b0010 #
b00000010 5
b0010 '
18
1:
1-
b00000010 .
#276
08
0:
0-
#281
b0001 '
18
1:
1-
b00000001 .
#286
08
0:
0-
#291
10
b00000011 !
b0011 #
b00000011 5
b0000 '
18
19
1:
1+
1-
b00000000 .
#296
08
0:
0-
#301
18
1*
1:
1,
1-
b10 /
